$ORIGIN 2connect.net.
$TTL 7200
@	IN SOA	ns1.2connect.net. hostmaster.2connect.net. (
		2016053102 7200 1200 3600000 7200 )

	; nameserver definitions
	7200	IN NS		ns1.2connect.net.
	7200	IN NS		ns2.2connect.net.
	7200	IN NS		ns3.2connect.net.

;
;  Name Servers 
ns1             IN A    46.29.56.196
ns1             IN AAAA 2a01:87c0:1000::196
ns2             IN A    80.88.242.4
ns2             IN AAAA 2a03:1c00:1000::4
ns3             IN A    80.88.242.19
ns3             IN AAAA 2a03:1c00:1000::19
ns              IN A    80.88.242.3
ns              IN A    80.88.242.18
ns              IN A    46.29.56.196
ns              IN AAAA 2a03:1c00:1000::3
ns              IN AAAA 2a03:1c00:1000::18
ns              IN AAAA 2a01:87c0:1000::196
; End of Name Servers
;

;
; Office 365 Deployment
2connect.net.				3600	IN MX		0 2connect-net.mail.protection.outlook.com.
autodiscover.2connect.net.		3600	IN CNAME	autodiscover.outlook.com.
2connect.net.				3600	IN TXT		"v=spf1 include:spf.protection.outlook.com -all"
_sip._tls.2connect.net.			3600	IN SRV		100 1 443 sipdir.online.lync.com.
_sipfederationtls._tcp.2connect.net.	3600	IN SRV		100 1 5061 sipfed.online.lync.com.
sip.2connect.net.			3600	IN CNAME 	sipdir.online.lync.com.
lyncdiscover.2connect.net.		3600	IN CNAME	webdir.online.lync.com.
msoid.2connect.net.			3600	IN CNAME 	clientconfig.microsoftonline-p.net.
enterpriseenrollment.2connect.net.      3600    IN CNAME        enterpriseenrollment.manage.microsoft.com.
enterpriseregistration.2connect.net.    3600    IN CNAME	enterpriseregistration.windows.net.
; End of Office 365 Deployment
;

; default A record
@	300	IN A	80.88.242.13

; hosts
www	300	IN A	80.88.242.13
2p223k	3600	IN A	80.88.242.13
ipcs	300	IN A	80.88.242.49
blocked	300	IN A	188.137.137.37
